{
  "__type__": "cc.SpriteFrame",
  "content": {
    "name": "bottombar_napxu_right_icon",
    "texture": "bcd9e419-5106-42eb-af23-dc844df59c68",
    "atlas": "",
    "rect": [
      0,
      0,
      63,
      58
    ],
    "offset": [
      0,
      0
    ],
    "originalSize": [
      63,
      58
    ]
  }
}