{
  "__type__": "cc.SpriteFrame",
  "content": {
    "name": "lieng_ico",
    "texture": "5035c8f9-5797-4170-b0f7-11a6c68a4cdf",
    "atlas": "",
    "rect": [
      0,
      0,
      315,
      317
    ],
    "offset": [
      0,
      0
    ],
    "originalSize": [
      315,
      317
    ]
  }
}