{
  "__type__": "cc.SpriteFrame",
  "content": {
    "name": "bottmbar_message_icon",
    "texture": "1583e5b0-f2ab-4626-9dbe-d34b89f3d2bc",
    "atlas": "",
    "rect": [
      0,
      0,
      89,
      67
    ],
    "offset": [
      0,
      0
    ],
    "originalSize": [
      89,
      67
    ]
  }
}