{
  "__type__": "cc.SpriteFrame",
  "content": {
    "name": "bottombar_bkg",
    "texture": "7b824381-8058-4d9a-86ec-fd3c51e2e214",
    "atlas": "",
    "rect": [
      0,
      0,
      1920,
      208
    ],
    "offset": [
      0,
      0
    ],
    "originalSize": [
      1920,
      208
    ]
  }
}