{
  "__type__": "cc.SpriteFrame",
  "content": {
    "name": "topbar_setting_icon",
    "texture": "d8fca0cd-3c9e-4223-a703-0e787ce35663",
    "atlas": "",
    "rect": [
      0,
      0,
      87,
      87
    ],
    "offset": [
      0,
      0
    ],
    "originalSize": [
      87,
      87
    ]
  }
}