{
  "__type__": "cc.SpriteFrame",
  "content": {
    "name": "bottombar_notifi_icon",
    "texture": "a8b473bf-68f2-463b-a1eb-94dff974a3a1",
    "atlas": "",
    "rect": [
      0,
      0,
      85,
      74
    ],
    "offset": [
      0,
      0
    ],
    "originalSize": [
      85,
      74
    ]
  }
}