{
  "__type__": "cc.SpriteFrame",
  "content": {
    "name": "topbar_list_friend_icon",
    "texture": "aec139a1-3a85-43a8-8034-c970934a81bd",
    "atlas": "",
    "rect": [
      0,
      0,
      82,
      100
    ],
    "offset": [
      0,
      0
    ],
    "originalSize": [
      82,
      100
    ]
  }
}